﻿{
  "inputs": [
    {
      "type": "EventSource",
      "sources": [
        { "providerName": "Microsoft-ServiceFabric-Services" },
        { "providerName": "Microsoft-ServiceFabric-Actors" },
        // (replace the following value with your service's ServiceEventSource name)
        { "providerName": "SciSolutions-OutreachApplication-OutreachService" }
      ]
    }
  ],
  "filters": [
    {
      "type": "drop",
      "include": "Level == Verbose"
    }
  ],
  "outputs": [
    {
      "type": "ElasticSearch",
      "indexNamePrefix": "outreach",
      "serviceUri": "servicefabric:/Logging/ElasticServiceUri",
      "eventDocumentTypeName": "diagData",
      "numberOfShards": 1,
      "numberOfReplicas": 1,
      "refreshInterval": "15s",
      "useSniffingConnectionPooling": false
    }
  ]
}